72.9868676541	895.984802246
81.9377818168	3232.41992188
85.0286897764	505.696960449
88.9814758021	507.852325439
89.0599978459	665.410766602
90.9033191275	611.601074219
96.9589082659	646.186645508
100.11174821	1026.05297852
110.061460139	640.116455078
110.975377957	542.291503906
111.046273499	457.348846436
114.091215232	4239.13134766
116.069594225	651.42364502
116.105856379	656.834777832
116.976217945	3041.55737305
117.058024677	2250.59375
118.083853363	1812.33508301
119.085215015	1574.95690918
120.081053176	3181.76611328
121.050856699	89492.796875
121.14766662	1437.21008301
121.182459904	516.647644043
122.053521586	5900.01220703
122.964717698	839.76953125
124.040959003	1121.76135254
127.039198851	1156.80993652
128.06771484	481.485656738
128.105193658	791.807006836
130.065211678	3652.13452148
130.159071579	568.807983398
131.081100099	489.033203125
132.080718895	15236.5693359
133.077969665	1956.9654541
133.0924526	1508.0670166
135.071194297	490.588775635
136.069953339	913.094665527
136.927589917	587.087097168
137.059337264	467.886199951
138.054628072	13057.1083984
138.124473543	615.977722168
139.05541545	1184.84924316
139.110800825	579.937011719
141.11061824	482.739929199
144.080387162	1808.9744873
145.083601799	520.336669922
145.097449896	512.192871094
146.061234321	933.66619873
147.046550601	590.386962891
147.114875113	553.812927246
156.137803561	4456.74267578
158.107188164	831.972839355
159.092755579	921.442932129
163.039821878	2445.02539062
163.122621916	47516.4179688
163.235365012	529.872314453
164.125792146	5619.64306641
173.131609227	1844.8112793
174.148408859	10384.4140625
175.038224319	1092.16064453
175.148082064	9716.79394531
176.091036934	506.609954834
176.150958237	1378.98620605
180.091995865	688.185791016
187.179699682	902.551208496
188.069977842	4159.95849609
189.074862162	557.935668945
191.143136321	3098.09057617
192.146309176	523.862182617
194.117884478	576.710449219
199.179726467	1063.55932617
200.127984099	1378.5402832
201.115043539	530.605102539
207.065238357	9136.87207031
208.069347388	1181.8815918
209.16416256	20832.3398438
210.165620486	3224.29150391
216.123677463	765.630310059
217.105652265	1036.49926758
218.136514375	1183.72851562
225.076389984	3973.56054688
226.080200886	576.585510254
227.176008683	454676.84375
227.307265485	12011.0722656
227.35779455	4803.70458984
227.454849836	926.358154297
227.493021666	1576.66455078
227.532774187	649.958618164
227.553576156	456.176818848
227.603855419	478.21295166
227.623143364	598.633300781
228.178625895	58055.75
228.309888924	596.141113281
228.353305777	578.528320312
229.001970872	477.887481689
229.180842828	5583.57177734
230.180926283	587.007507324
233.183387589	1970.76599121
239.148159205	651.301574707
246.162482784	1118.40771484
249.157794609	147270.296875
249.293881607	1416.99536133
249.347582336	1300.59094238
250.160240251	18808.171875
251.16219756	2029.31616211
261.130758589	557.021606445
265.131217359	6435.77832031
266.13430379	1041.41516113
267.131510792	670.281921387
271.244750745	538.133972168
272.185578044	1039.87194824
283.174814307	724.583068848
287.23520037	1022.92352295
295.155486952	586.425292969
303.05201591	1459.12976074
303.229063867	563.985595703
309.090866725	1976.66137695
311.127756127	2686.36303711
312.130506322	493.328186035
317.070801887	677.530517578
323.076890054	555.49798584
325.058508843	3809.54443359
325.560106871	1097.70947266
327.097513927	477.777404785
327.200811874	8085.59765625
328.204114264	1321.64941406
344.227803595	4582.67333984
345.230217311	915.452087402
349.182058722	2499.34765625
352.338517182	1623.4395752
353.195994356	3079.46191406
353.338593064	574.040466309
354.198349124	632.853271484
356.279057095	1274.00280762
360.245953498	678.804382324
361.235148138	1104.86499023
365.15578921	1393.86425781
371.212053493	963.42590332
383.277207533	925.82635498
387.15937425	813.536865234
388.248192865	943.462280273
389.279701549	797.232177734
392.216609971	596.512939453
400.31161078	3590.64233398
401.314645547	955.868652344
404.153861544	508.874633789
405.256745661	646.294494629
406.084879842	2451.22949219
406.586769382	942.830810547
409.111223454	2899.0324707
410.116780398	570.282348633
411.093656693	461.40032959
411.198800957	11050.0410156
412.201880337	2258.93945312
413.203198254	467.063934326
425.08275539	925.679504395
427.172082118	2827.38842773
428.175366441	663.721130371
438.139363549	3171.16162109
439.148016989	1291.08300781
443.136440663	456.4034729
444.327631864	760.326965332
450.19530628	1301.11096191
453.342884523	17160.5390625
454.345584502	4739.73486328
455.149386946	813.195678711
455.347867527	836.292785645
459.350541856	3051.6003418
460.353453302	882.033508301
463.14147847	621.240905762
465.103910979	4351.94091797
466.109626103	1066.18444824
468.178108064	1323.03320312
468.187338211	460.262390137
469.186485061	573.201965332
470.224762549	688.537719727
471.098121021	910.599487305
473.170762041	1186.61645508
475.325321845	67586.8984375
475.579831556	477.080383301
476.327906066	18128.4492188
477.330132116	3016.59179688
482.22555798	1084.75146484
483.22337469	557.30078125
484.243557968	26770.46875
484.381105339	595.40625
485.244944021	7916.82666016
486.246555518	1731.1751709
496.208397978	1066.69433594
497.207495445	714.885070801
498.221509282	3474.08789062
499.225251983	1241.53747559
500.236563149	2313.52587891
501.236197455	792.839050293
506.170985414	988.933288574
516.26852427	13627.2607422
517.270801957	3956.5546875
518.267595082	915.877441406
528.23666909	479.1328125
530.245472853	716.812194824
574.250222833	518.271362305
579.244393277	1139.18859863
580.248644204	629.689880371
581.25743834	596.06628418
603.222986358	493.106689453
611.161995628	1923.07275391
612.167813217	708.671569824
627.155481001	3221.72851562
628.159600762	1075.37426758
635.276452607	718.570251465
651.115270131	707.672729492
658.239966838	546.865539551
773.212674248	44095.796875
774.215297124	15513.0703125
775.216993649	4534.48925781
776.220356541	1112.27612305
792.188283047	881.817749023
792.684635248	629.770324707
795.194007498	5935.96923828
796.19758673	2280.84399414
797.195043756	877.955688477
811.168620689	1627.28662109
812.174795769	634.679870605
827.13179543	595.132568359
847.137332055	897.863098145
857.166782961	1202.94592285
858.171280228	471.139648438
868.30944319	456.166900635
884.339465265	756.257324219
955.745351248	519.722167969
