69.0338609083	487.822814941
71.0497494017	802.748901367
72.9867284836	686.207092285
81.9374847273	2523.52099609
85.0287752029	2622.1496582
86.0962600787	681.239135742
89.0583311894	455.25982666
96.9592366959	517.424926758
97.0280566387	1201.88012695
109.028422473	642.390319824
109.061696457	476.247131348
109.098923299	429.848571777
110.062491964	530.184143066
116.070709899	1376.85424805
116.976068979	2347.61865234
117.058363235	771.60748291
118.085740207	3099.86547852
119.049070209	675.516235352
119.083276333	707.264038086
120.080437931	2520.26269531
121.050859331	89816.1171875
121.147583912	907.11138916
121.183130103	742.029418945
122.053583032	6086.08789062
122.964904564	687.137329102
123.112310433	471.033508301
124.038118147	444.151000977
124.041268867	735.344787598
127.039188679	2767.63037109
128.06801602	594.994750977
128.105449173	686.951538086
129.05608669	878.043945312
130.067984701	1626.9855957
131.081860809	1196.59008789
132.081523124	4029.32641602
133.086566893	1110.93041992
135.0454855	614.407348633
136.066954061	837.382446289
137.060953551	1222.93347168
138.055893486	674.295776367
138.125620797	525.310241699
139.111331662	547.672119141
141.05362081	893.7890625
142.06769334	559.601318359
144.077712459	1555.74414062
145.051670066	1679.40344238
147.045417519	3391.09863281
147.110681738	759.873474121
149.097171767	949.409484863
150.057141821	603.368530273
153.05235167	527.199584961
154.084087189	568.09387207
156.135527667	487.232452393
157.130078887	509.068664551
158.110839108	603.054931641
159.092619262	531.210388184
163.039407861	7541.06054688
163.121832218	7826.05029297
164.042677898	690.745727539
164.12478489	1130.38134766
165.056344463	2101.0402832
166.081444375	637.091796875
167.068503275	520.307983398
167.101066145	467.000061035
169.048833012	1099.59606934
177.056896615	1328.25476074
178.05369064	830.344360352
179.069029718	450.604553223
180.093690433	620.67779541
181.080105777	675.688354492
187.104559773	426.451324463
188.070440653	1492.91870117
188.999006248	511.042205811
191.105581344	895.947387695
194.116358595	439.181762695
195.100532683	852.131164551
196.099230065	505.799255371
200.127563473	1720.11645508
201.118687359	718.135070801
203.122126087	435.905914307
206.044289026	2931.14575195
207.064758436	960.45690918
209.117211492	5536.48925781
210.120189345	862.616760254
210.181715831	592.514282227
213.154794852	420.346466064
215.124099318	882.642822266
216.123176864	1085.19482422
217.103611928	1985.93615723
218.136036531	1132.16809082
219.13298095	433.900604248
223.07822458	731.127929688
224.126113777	811.364624023
227.127640064	1498.5222168
227.209920279	2638.15478516
229.102636531	452.165008545
234.132958915	548.448852539
239.142209948	585.262634277
243.121664431	551.100585938
244.0318063	556.784240723
245.055397781	761.505432129
245.220926057	4102.46191406
246.223759643	602.332763672
252.136979698	467.116149902
261.133900304	797.394226074
263.139334174	489.245391846
265.149413702	510.903137207
271.13234754	522.206481934
271.243847715	436.946563721
282.278544274	470.787475586
287.054765191	19342.5664062
287.231875573	967.4296875
288.057793023	3139.60449219
289.062718559	573.321533203
289.190997085	998.769897461
295.135924835	1507.89367676
297.127766474	848.741333008
299.112292171	1054.71520996
302.195660069	4833.64257812
303.207062841	1138.04223633
309.075474597	2874.08618164
309.572621076	1131.48974609
310.07629041	888.675109863
312.163041469	859.153564453
313.162737393	422.31842041
316.178687086	466.679748535
317.062042175	18325.7148438
317.115301938	9210.23925781
317.561535855	5611.5234375
318.063980231	1242.08972168
318.124734785	1178.8125
325.013445041	846.62310791
327.188848264	615.982177734
328.207547887	617.065429688
329.124102006	560.699951172
330.235910165	762.870544434
333.095154004	2202.84887695
334.178359935	963.445251465
339.112052235	748.989562988
340.15641019	505.221496582
344.134877881	1983.38208008
345.128525451	458.453613281
345.211243136	1093.10205078
346.192047689	1013.94360352
349.088276484	1985.72570801
352.33762849	1254.94348145
353.167120902	637.252868652
354.14839762	430.270507812
355.110410354	859.471740723
356.159444869	462.933380127
356.27911201	1687.36853027
357.147583727	583.153808594
357.276351513	468.211608887
359.169066635	438.574737549
359.202995845	461.345428467
361.23029452	987.866088867
363.195162311	473.165222168
365.066515075	1469.35180664
367.17666445	650.448791504
368.183660228	743.69519043
371.166876295	1298.19995117
372.160552101	495.095336914
373.157374589	622.419189453
374.22461982	576.435302734
375.14257631	517.235778809
376.171398353	457.857696533
377.086584014	777.109985352
377.194534284	491.00177002
379.100673961	534.305908203
381.111872808	464.90512085
382.196038858	638.295532227
383.272823745	946.813171387
387.14755852	1491.48815918
388.171036775	424.242248535
390.101298008	557.315490723
396.199503681	652.245239258
397.108101571	494.142150879
398.086246451	9094.67871094
398.190644929	764.670959473
398.587375521	3255.59033203
399.093879828	1248.1385498
400.303651318	1455.51940918
401.299896492	536.292053223
403.155543368	1556.96826172
404.156380711	1441.0357666
405.231245002	555.051025391
406.20652136	2070.48535156
407.214331666	577.315795898
408.199540509	537.110412598
409.114169999	1233.65405273
411.16309168	12294.7402344
412.168199599	2862.55834961
413.170649688	1095.85827637
414.182878158	566.589904785
416.224384378	668.856140137
419.139462317	870.477294922
419.239407289	518.882568359
421.210028233	421.85446167
425.086458623	978.906555176
427.138076045	7644.14941406
428.147681515	1636.95947266
428.212441384	646.614562988
429.169562912	3990.85571289
430.173386689	477.469573975
430.237510977	749.781555176
431.195668293	1440.83337402
436.148106467	1376.7598877
441.264062058	435.816772461
443.130554622	1364.6217041
444.322871852	853.935668945
445.148760219	654.386047363
445.158473271	747.156494141
447.185069996	1073.05957031
448.188419665	514.706848145
449.107317483	70908.640625
450.110487069	15554.2675781
451.115156935	3393.97290039
451.230694885	722.691650391
452.122872947	547.631103516
452.237463734	450.022521973
453.13772005	697.297790527
453.224698434	429.592834473
463.164679668	476.299133301
464.179875971	1192.14245605
465.186121208	550.941711426
468.209575547	1127.14135742
469.154976433	1187.34289551
470.230685725	637.814453125
471.090004228	707.587158203
471.206372479	459.256408691
472.240978722	914.106201172
473.071890371	481.911437988
473.204973113	1942.77258301
474.24506358	513.348876953
475.224161719	916.517211914
477.214035325	614.996398926
482.227546946	832.84753418
483.229214208	491.278442383
484.238041026	832.38861084
486.225878142	486.046356201
487.056873284	657.302124023
489.189450004	743.323303223
495.229350595	495.107543945
496.217374418	900.40246582
497.221461129	499.226715088
498.222722091	1733.06030273
499.228016119	947.818786621
500.237847215	55053.515625
501.241647839	15359.2773438
502.245883096	3554.28173828
503.027346271	957.273864746
503.247382045	874.069580078
504.246456218	454.683807373
512.232520748	442.47555542
513.241219716	688.306640625
514.245487766	1226.50756836
516.268351816	5253.93457031
517.269357871	1641.68579102
518.271482021	526.036743164
519.235773317	1443.42834473
520.241519423	611.418518066
522.22428754	428.400665283
526.228262986	580.962036133
528.244150642	551.16418457
530.248420326	676.213806152
533.231464342	416.085571289
539.228092986	564.995788574
540.236847883	579.513061523
541.218182624	574.765075684
542.239776302	527.19921875
544.230178363	1849.3059082
545.180211365	910.418273926
545.21962996	526.206542969
545.653631312	433.349304199
546.223276415	584.225219727
550.263608536	616.438293457
551.256969261	417.269958496
553.2622719	1058.08154297
554.258450584	569.392456055
555.252293648	537.653564453
556.247127678	578.335021973
558.244613846	544.782043457
560.258831534	419.460327148
562.217240769	1301.77294922
563.224337171	591.813964844
567.253773484	442.786956787
575.131067869	546.378662109
575.361406305	673.510009766
579.259917443	584.247680664
581.26160659	1307.98242188
582.259496576	650.452514648
583.272815724	641.529968262
595.164482482	36145.1796875
596.167742604	10632.2558594
597.173621706	2766.97753906
598.278865855	780.577453613
603.235524252	485.471313477
608.273629708	483.42779541
611.159482629	41096.8125
612.163026324	11758.0683594
613.166786336	2923.39453125
613.282479816	732.030273438
614.174397485	685.067016602
619.123833523	1206.1854248
629.289083563	425.529022217
630.289043604	511.846466064
635.12055072	1086.45043945
635.251656344	1075.01391602
636.2596012	427.313995361
637.129663737	568.894897461
639.23130198	719.060791016
646.29037552	439.719024658
664.296481852	470.129089355
665.080407635	552.919799805
668.221695839	467.201019287
702.211902931	418.531585693
716.276608392	1888.78393555
717.277245105	826.615112305
718.271080966	415.671722412
721.231398949	1109.14660645
722.236367774	479.946746826
737.209417782	475.074584961
749.201599236	855.248413086
750.207191949	418.981719971
751.213738294	515.057617188
757.218483541	414681.15625
757.551122711	2943.42236328
757.787359422	1433.6114502
757.868311518	882.006103516
757.962157932	779.966674805
758.026308208	557.964782715
758.221163614	143404.21875
758.553376937	851.784240723
758.673515147	585.129455566
758.707983614	514.367919922
758.783165497	562.894104004
758.814352156	641.214538574
758.872742474	939.092712402
758.943671001	810.617248535
759.222324917	37503.0546875
759.548529861	560.956420898
759.603708931	427.651977539
759.638548184	823.425231934
759.728257094	602.818908691
759.790424884	618.767150879
759.893042748	603.93157959
759.952571439	471.968475342
760.224882806	8285.59765625
760.502535296	480.336090088
760.698073292	471.533630371
760.838071378	438.463989258
761.228274799	1880.43273926
762.251961805	628.06829834
763.232638061	669.524291992
763.441758669	578.671569824
765.15539527	532.48626709
768.204221981	2215.65820312
768.701266326	1762.22717285
769.205674796	1420.75634766
769.703436659	800.109802246
770.230365036	502.87109375
773.214542107	798.852478027
776.18952966	15426.4082031
776.690724212	11462.6445312
777.193570851	5670.77001953
777.693799	2164.76147461
778.197204678	1126.98840332
778.696154176	541.268676758
779.198347603	54109.5664062
780.201241156	18934.8242188
781.198409377	7040.22412109
782.197491447	1929.2878418
783.203020547	635.666320801
784.179348517	1445.44677734
784.67833448	966.122009277
785.188568613	636.364501953
785.41933285	551.669006348
787.194123585	670.93170166
788.176882843	597.28302002
795.171150078	13625.7441406
795.665617334	801.194702148
796.174837759	5083.40576172
797.175210963	2369.95092773
798.179223518	932.264526367
803.159922459	465.959960938
810.129703252	741.08996582
811.135625703	2577.54321289
812.139277936	982.837768555
813.147981061	489.68963623
819.163236633	435.633178711
825.187195317	617.981628418
831.141402087	1484.28955078
832.148088788	592.768249512
833.136538876	601.555419922
833.279775515	995.802124023
834.284461796	583.045654297
841.168492612	3882.64331055
842.175224641	1537.90844727
843.179375356	639.627868652
847.113565327	879.69543457
849.121955707	415.015289307
852.307458204	455.705047607
868.301253564	419.54876709
884.332581256	805.196289062
893.140194132	609.279296875
903.273854446	1293.01342773
904.278196325	662.742919922
911.196216652	419.436645508
913.193633814	922.972961426
919.268834426	625.190551758
927.215885036	723.748413086
956.322853891	1112.63842773
957.321607305	669.32019043
1021.3223202	708.830688477
1065.32967713	461.757293701
1073.29457513	757.906311035
1074.32018512	497.444213867
1076.3417684	543.087036133
1078.35448107	536.179992676
1089.28269752	808.698242188
1090.30222303	486.106903076
1094.35473046	641.385864258
1095.34938911	436.806091309
1096.36791328	1022.94110107
1097.36112864	685.690490723
1106.34058297	429.865356445
1108.36326538	538.478942871
1110.38035987	519.14440918
1154.29439678	3471.83227539
1154.79421647	3922.79516602
1155.29811298	2610.08154297
1155.79722806	1395.14526367
1156.29916602	812.901672363
1166.28606307	427.328186035
1173.27868888	467.857391357
1173.76920739	438.539611816
1221.9882482	453.529937744
1235.29626695	1021.10290527
1236.30202199	662.088500977
1365.35241951	456.938354492
1381.34455349	502.423400879
