81.9378419502	2006.87426758
89.0599743111	3792.57714844
107.085354379	3279.73266602
109.099996035	1952.17895508
116.975808136	2544.3605957
117.069098115	2070.52172852
118.082354812	2028.296875
119.085055613	1664.0871582
120.081393835	1898.89648438
121.050865789	70393.8046875
121.097502163	8666.18164062
122.054138975	2383.30151367
122.068425933	3864.7109375
123.079893598	1982.26757812
130.06486884	23379.3769531
131.069962531	2869.76538086
133.088133339	3056.72436523
133.100792832	35152.625
134.104290351	3816.44775391
135.080592269	20942.8066406
136.083573669	2165.98925781
137.095784102	43185.8671875
137.130709547	3535.83422852
138.099197051	4110.65332031
147.111118686	2046.43713379
149.13186401	20145.2832031
150.135334553	2211.01464844
151.111258182	2190.49633789
158.059834906	1958.27880859
163.122862609	1705.65808105
163.145478786	4866.32617188
165.12636522	2264.01025391
173.131229427	3502.64208984
177.111981487	3005.12329102
191.142549915	22158.7675781
192.145987843	3331.66088867
198.149023992	2323.49267578
198.183929235	1686.92578125
209.152779849	23254.9921875
210.155626563	3281.71240234
215.210416821	6439.10498047
219.148269	2236.93847656
237.156549629	2366.36645508
244.092712023	2066.89941406
247.143201046	2181.87255859
287.055258478	317126.78125
287.20118893	7724.80908203
287.257787866	3418.42944336
288.057968299	47642.8242188
289.060080617	6806.27636719
300.151446401	4100.08544922
317.059679221	8756.27929688
317.195674505	2009.85009766
317.561184725	2855.51245117
325.001706627	2292.27124023
357.18667568	16726.8359375
358.189630741	3226.83618164
362.22170584	8334.27929688
362.723155256	3002.35302734
370.734332704	11327.0107422
371.213438937	13468.1435547
372.208746951	2705.24462891
373.172830148	2632.57104492
379.246089128	3312.69165039
383.957793384	2054.42456055
384.287688464	1678.9473877
386.217381342	2522.15380859
390.179985835	3581.34082031
393.188590167	120258.523438
394.191391899	23806.921875
395.192726668	4746.40136719
409.161325941	25629.0058594
410.165110978	5376.89501953
411.165537079	2664.7800293
412.221743478	15020.7070312
413.224684306	3969.67993164
415.196438153	2121.80541992
425.127363702	1974.32275391
426.231559278	1660.14050293
431.179309097	1839.76611328
433.114203653	2284.859375
449.10689805	68008.3671875
450.110418221	14959.1865234
451.111417625	2883.69750977
455.158448454	5302.81640625
459.166222477	2369.87207031
484.15825458	1663.95397949
502.15788037	3663.41821289
502.659737886	1899.12573242
534.345202196	2495.87841797
561.34660011	68496.921875
562.349220458	18304.0800781
563.350848578	4100.82080078
564.352904671	1807.03308105
575.430438605	8134.98925781
575.931588065	5872.0
576.433182564	2547.98950195
578.373713372	1628589.625
578.568670632	22055.6308594
578.670441317	28357.9121094
578.87961752	9261.0390625
579.032668316	3651.60083008
579.102126518	3774.17602539
579.149239066	2511.32006836
579.377593757	463365.03125
579.670943026	9991.49902344
579.823011789	1889.44848633
579.885937722	3986.66235352
579.945335294	1661.26098633
580.017624316	2916.07983398
580.123303929	3143.82836914
580.193224706	2008.62731934
580.379075763	98624.8828125
580.670957004	2965.84277344
581.143152625	2171.703125
581.380275165	16358.5742188
582.377597064	3257.39916992
583.328749007	142890.359375
584.331486612	37168.1054688
585.333465245	8912.35449219
586.416020438	4629.44921875
586.922298468	3500.50854492
587.421356805	1632.03637695
595.164749225	203976.796875
596.16745601	56513.1640625
597.169379507	13465.65625
598.174825442	2428.33666992
599.30219031	97858.5546875
600.305043086	25527.6132812
601.302848066	11937.7597656
602.30434992	3016.60083008
614.136830954	13269.8505859
614.639037003	7952.29199219
615.139569183	3533.94433594
617.14586542	114731.367188
618.148510845	32095.5859375
619.147640631	8679.10839844
620.14816074	1828.50048828
633.118306145	18495.8378906
634.12105723	5374.57128906
635.122008149	2538.95288086
649.082430562	2500.84521484
679.11432498	4941.25634766
739.206463216	1789.19287109
740.46067746	31497.0429688
741.46345725	11076.8447266
742.464680959	2968.28344727
745.415582056	5838.41064453
746.418038264	2204.06274414
761.389495672	3435.75097656
763.385045464	3490.45483398
911.214280808	4228.68212891
911.714830035	3755.38891602
912.216069872	2131.51977539
1208.29180482	2122.2668457
1208.79161437	2622.15917969
1209.2931034	1944.54504395
1211.29582893	6141.44677734
1212.29748656	3857.62353516
1213.2854645	5011.60644531
1214.28560822	2415.50097656
1227.26472332	5777.30126953
1228.26863761	3515.83374023
1243.2364649	2961.01928711
