69.0337291777	3302.31787109
81.9374094595	2514.46508789
85.0281982365	3658.29614258
86.0965092132	2749.53979492
87.0441655507	3595.45336914
89.0595561672	7659.43554688
97.0279966781	4524.83789062
115.038353426	7442.77685547
116.975619078	2911.47631836
118.084734769	2047.5255127
120.080012221	25389.3476562
121.050863352	92448.046875
122.05325774	6249.92919922
127.038647573	2849.30786133
130.066552387	2960.05566406
132.094561818	1838.79992676
133.049278263	3917.65991211
133.083797268	8989.63378906
145.050348461	2841.83666992
146.116238142	3762.08886719
147.044059227	6196.22314453
150.075040979	2827.54418945
159.100206426	5156.484375
163.058231307	2294.83959961
163.120025097	2222.58618164
177.111147605	6338.77978516
221.139022733	2839.58544922
245.184678567	6455.85498047
249.116447247	3624.13574219
251.147013895	2349.25048828
259.081627866	2770.12548828
279.169097027	25065.6992188
280.171944833	4261.41845703
295.101428399	7632.17529297
303.049043709	1836.90808105
316.218779372	2532.82446289
318.17891232	3048.33300781
341.215478797	23931.0449219
341.271163561	7175.12695312
341.607839288	4807.61865234
342.226496984	5996.78271484
344.250550044	2524.02197266
346.231998067	3465.2902832
356.275785638	1972.5604248
358.241836278	45437.6953125
359.244395865	7599.14892578
362.206887577	1962.71166992
363.197907111	4811.56494141
371.223540814	2072.91235352
374.227347023	2215.58374023
375.12748637	3760.49487305
379.171768255	3830.47021484
386.214266907	1883.84899902
400.21553271	14946.9990234
401.218917273	3136.24291992
402.169579644	2543.02563477
405.171282256	33575.59375
406.173525655	5955.38623047
407.159318075	2942.70776367
411.166808031	2027.07617188
415.249809051	3368.21435547
421.1438913	10629.1992188
422.148079023	2063.65014648
437.109476528	2514.42480469
451.230098068	5081.12695312
451.319164935	2209.53955078
454.229926079	3238.46411133
456.169880268	7041.671875
457.166823	2017.05859375
459.278681917	231261.859375
460.281373435	47499.0039062
461.124343202	9442.20703125
461.281588131	10010.8369141
462.130249863	2037.35498047
467.143153822	4962.99951172
476.305407931	1815307.125
476.487716025	26884.7832031
476.574917025	31741.3554688
476.76340399	10704.1835938
476.836796309	4618.25439453
476.914813479	4274.24755859
477.097285828	9043.234375
477.308901577	411883.59375
477.490430844	3438.89355469
477.574810556	8238.47753906
477.704716001	2040.3380127
477.76501263	2872.44213867
477.832001722	1824.11730957
477.877389021	1882.24462891
478.094409663	4010.88183594
478.310384483	77423.65625
479.311253062	11714.4521484
480.301115722	2213.7253418
481.260615877	165812.9375
482.262810761	34721.7695312
483.264495574	7476.91552734
484.249220052	1932.57312012
490.299769849	2066.23144531
491.309571012	1985.44799805
495.241955062	1994.45458984
497.234153847	129165.171875
498.236539305	27123.9296875
499.237869667	16449.8496094
500.242218947	4759.04101562
502.28886262	64200.6953125
503.290901143	19088.7246094
504.299982675	4582.06542969
506.16649288	3057.39111328
511.407300994	16963.1425781
511.908267017	11149.5947266
512.408811654	3846.47924805
543.234302892	2077.0402832
666.229272183	39113.8671875
667.232727855	13360.6679688
668.233082452	4940.37158203
