72.9867959897	868.83013916
81.9378551138	3091.41601562
85.0289443773	2567.65258789
89.0601115693	11496.3837891
97.0284236018	1499.30090332
109.028652921	859.823974609
114.091147404	1516.17297363
116.97608294	3008.2590332
117.057692887	1876.3026123
118.085274594	2550.88989258
120.080652098	2804.19604492
121.050860919	102132.640625
121.147826056	1547.16088867
121.181477649	842.300415039
122.053441361	6737.41162109
122.964325168	925.755737305
124.039997075	1097.36096191
127.038991327	3016.98950195
129.090986524	915.496826172
130.065180812	3341.95996094
132.080581376	13478.0273438
133.085614055	13512.0859375
134.08493444	1175.97558594
137.060620981	1258.90881348
141.019288956	1498.12426758
141.112971799	945.168151855
145.048800795	1970.69787598
159.100433607	2810.57983398
161.062074267	1562.75756836
163.065410068	1096.50317383
163.122410662	29434.2304688
164.126013278	3433.81567383
169.014112928	917.024719238
177.111547342	8074.10644531
196.096680489	1419.09960938
200.127732683	1356.45239258
201.111584018	1247.85827637
205.088879671	1103.8215332
209.11788066	1356.22106934
213.176647414	2251.11523438
216.122731632	795.001281738
217.102143655	992.958435059
218.137163427	939.027282715
221.138265594	2173.02124023
227.172491174	2229.89794922
239.14806254	1406.36853027
245.185014437	855.20513916
265.163362831	1475.17993164
283.175120261	3993.16625977
287.108713485	9045.37207031
287.23407933	1347.22595215
288.113690239	1219.92053223
289.090104244	1345.67333984
303.078544116	1291.0723877
309.196279117	990.101318359
312.163055239	951.057739258
317.059956922	1294.48510742
317.117698308	5955.46630859
318.117286725	949.364440918
319.085403777	1124.29016113
319.271631366	3485.99047852
319.772945794	1456.34777832
327.201533459	5123.77734375
328.20658412	859.537719727
331.135018951	1642.51965332
333.096639632	1252.16809082
335.133071207	1297.49743652
341.138616931	1079.32666016
343.307651039	1510.17419434
349.078369425	1472.83190918
352.338251444	1503.35107422
353.215338329	1131.72058105
356.280224416	1554.62451172
359.151948902	778.389892578
361.231510551	767.817077637
371.228363027	412204.875
371.390679633	5794.62841797
371.461799359	4496.80859375
371.633802903	1414.60327148
371.867684075	876.305908203
372.230950286	66734.046875
373.232447754	11817.9775391
374.232406818	1775.88623047
375.127070756	2203.41870117
377.141494499	1223.89807129
379.095825096	1144.06835938
383.278005692	814.477539062
388.254949395	761067.0625
388.421950189	17670.8105469
388.495434055	9827.72753906
388.666275301	2683.00415039
388.720201439	1370.37976074
388.741486667	1007.08776855
388.822849467	1016.46142578
388.858777779	1260.54101562
388.905962671	983.008850098
388.966415053	813.419494629
389.257658146	130306.164062
389.493644293	2082.3581543
389.593144332	925.681640625
390.259015465	22412.0644531
391.261508311	3184.39575195
393.209951313	134454.953125
393.444440344	1234.84545898
394.212657102	22161.4121094
395.213812977	4453.43359375
398.086898135	1214.45214844
398.323143321	6242.83837891
398.824696607	3158.6862793
399.325568729	905.113037109
400.303854421	1373.22363281
402.263542635	963.6171875
406.171303604	1000.01031494
408.179252821	1396.11694336
409.183132927	82991.6875
410.186119358	14143.9775391
411.180738345	9013.4609375
412.184840984	1834.65466309
416.234269844	2509.24804688
420.185015039	1875.97705078
425.140347139	2346.98632812
432.276141807	1628.13244629
439.120874082	2668.41577148
441.123892503	3211.27905273
449.10736285	2987.10522461
471.353432457	87406.3046875
472.355569409	22148.4882812
473.358715879	3633.41992188
482.217866494	1014.6963501
484.22040358	964.186096191
493.332251344	1695.43408203
498.222354849	3861.61450195
498.363925412	7282.45703125
499.225836023	1506.82946777
499.366423846	2114.12792969
500.23693805	5438.37060547
501.239146055	1669.21044922
502.242840964	787.302368164
514.223043487	1242.61047363
516.234806703	1177.22167969
521.200955204	3096.06445312
522.205745428	1023.79547119
526.219111772	2638.41455078
527.221565912	988.357299805
528.231695589	972.629821777
530.243530742	1030.30078125
532.258292644	1406.73779297
556.237164271	3556.92578125
557.239849286	1255.28210449
558.242171138	1599.34985352
560.243286472	777.358764648
561.193830359	9260.4765625
562.201202506	2734.13330078
577.168913004	4874.14160156
578.17372514	1504.7635498
579.176856643	767.670776367
595.165096938	1426.61633301
611.161704876	2664.39819336
612.16589852	833.639648438
757.217237128	25561.703125
758.220629162	9024.74414062
759.221334544	2663.02392578
779.198755436	4937.27978516
780.20199943	1760.09240723
787.225084025	1332.44470215
795.17403211	1291.58874512
882.323272631	854.50769043
