59.0501181325	3256.51000977
81.937593809	2265.53271484
89.0598689937	5991.54785156
103.075240522	3308.30029297
116.975985317	2911.90405273
118.081771411	2144.00512695
121.050836967	74365.21875
122.053706575	5228.63574219
127.039446247	1933.21887207
130.065140206	2714.38720703
133.087221701	7027.48974609
147.102925446	2630.68017578
149.12921056	2274.19824219
151.111204357	4767.75683594
160.075372401	2454.52832031
163.125049181	2759.53955078
165.123633637	2196.70263672
177.112479428	4360.44628906
191.142666887	8843.15722656
209.152610472	10127.390625
213.148259082	2526.47802734
215.209874379	2479.69042969
273.075977444	3417.03540039
287.054461323	119855.742188
287.137612271	2287.98486328
288.057415881	17965.5371094
289.06019088	2723.98461914
303.195963021	2873.8215332
311.703423907	2963.1027832
317.06301357	20932.0644531
317.560673739	1835.91259766
318.066726384	3108.42358398
322.164290466	7469.25976562
322.66605101	2353.16699219
325.17351048	2111.67163086
349.118531194	1747.47509766
371.206804373	1834.48950195
386.218081616	2647.609375
393.188257173	27035.2929688
394.191111844	5556.11669922
409.162449484	11032.3681641
415.194596913	4806.140625
431.171321089	2780.42163086
433.112630827	2290.22241211
439.226570234	2681.30517578
446.293265144	1852.37023926
449.106564005	31113.7207031
450.108735357	7268.42529297
459.273125878	2922.484375
460.305945386	4278.08691406
473.066114022	2307.65087891
479.11665548	4463.50048828
490.319386727	2497.37280273
496.376101062	2704.89160156
503.30325879	2720.86889648
510.217816006	3494.42822266
520.329519456	1842.40246582
525.285393504	1963.3848877
534.342997223	2260.05517578
539.249171808	1952.74560547
554.242829092	2056.45410156
578.372534448	2057.80883789
595.163030091	131507.234375
596.165702942	36209.8789062
597.167704315	8604.1875
598.1729296	1802.49853516
605.37271526	64580.703125
606.375152787	18202.7988281
607.377066717	4407.64794922
614.135590557	4635.36621094
614.6369839	2949.75024414
617.144284968	59443.1328125
618.146613412	16813.5351562
619.14761982	4785.43847656
622.400513525	1738160.0
622.59927741	15984.1806641
622.699346113	12695.2597656
622.921252079	7608.35595703
623.083267503	2116.95751953
623.149838678	3930.8190918
623.194209266	4314.80273438
623.404347735	529882.375
623.700722156	5042.57128906
623.734794185	2455.77978516
623.946873901	3924.02392578
624.088375051	2448.27905273
624.149724108	2708.55297852
624.225350191	3147.02856445
624.405737723	119074.703125
624.97943908	2961.37939453
625.171970145	21477.5
625.406251228	21066.2949219
626.175842042	7187.08300781
626.407000441	4246.46533203
627.355093402	124143.421875
628.357381887	35704.8164062
629.138722971	1806.9375
629.358868026	8480.28515625
630.359708226	2051.14819336
633.117683298	9573.62109375
634.122518451	3049.18017578
643.328873827	101718.242188
644.331388154	28704.5097656
645.329614164	13470.8222656
646.331837118	3259.35766602
647.155218317	11678.3964844
648.156848249	3855.52978516
663.130636642	2501.57495117
679.113301159	5070.93408203
1227.2600181	3003.12719727
1228.26309168	1813.38464355
