89.0597897051	4144.44970703
116.976028597	4928.28417969
118.084916081	3262.52563477
120.081318394	2234.57836914
121.050850236	130121.226562
122.055226858	8436.3984375
130.064650006	22965.9570312
131.069409259	2591.79345703
132.080353647	8148.42675781
133.086754605	3515.2878418
133.099851784	12687.5087891
135.080507117	7086.80712891
137.09574207	14105.34375
145.050765886	2111.01416016
149.131658891	6684.20166016
156.137617213	1891.7220459
158.060248604	1699.26782227
161.083355103	2492.26025391
163.12369982	18337.0507812
164.126354059	2683.63525391
170.152867412	1808.79138184
177.11201718	3169.91210938
191.143154439	8016.14208984
197.1176065	3133.54052734
198.149697763	4898.23779297
209.153558418	8874.10058594
215.210097154	7298.18261719
221.138626142	1641.87792969
228.066401599	1825.89453125
237.157525623	2788.19799805
244.094547611	3926.36450195
287.055142542	8230.50976562
356.276751732	2343.89550781
357.187858987	6298.20166016
358.191303762	1767.86193848
362.222380923	10418.5136719
362.723593221	3905.6184082
370.735594089	15357.6660156
371.226759393	9095.38476562
371.737988068	1618.65991211
373.183709681	1624.25244141
379.24806438	4592.57421875
379.749030683	1810.98022461
383.957278273	5563.47363281
384.290513521	4333.2109375
386.219700378	3576.33056641
393.190478708	51835.4648438
394.193334101	10405.0898438
395.195221542	2485.44213867
400.305024443	1652.76489258
409.164308464	15263.8623047
410.168318844	3252.9453125
412.223578849	5554.19921875
413.226501287	1738.39770508
416.280379342	2018.63830566
449.107902161	1974.32421875
453.340860359	1965.99414062
455.16322727	2352.17407227
459.275360154	1615.63964844
534.345976616	2480.36767578
561.347208906	29107.09375
562.350415503	8115.1953125
563.352769647	2001.7701416
564.356094201	1625.33374023
575.431132819	15086.0341797
575.933024973	10516.1796875
576.433224233	4281.38867188
578.375056984	1590601.25
578.575153702	37101.0585938
578.671632874	26189.7226562
578.876801655	7734.03515625
578.941119325	2202.01220703
579.0276878	2867.37841797
579.092138416	4769.66845703
579.160821387	1758.74023438
579.378805732	450701.5
579.579016392	7949.86865234
579.672780737	7500.72119141
579.87201638	2475.37817383
579.918265219	1753.13183594
580.006355135	2399.15014648
580.078168222	2103.51879883
580.137959005	2048.3762207
580.230714659	1769.26831055
580.380214491	95315.171875
580.665493276	2191.08056641
580.831604445	2090.04321289
580.889697827	1642.88708496
581.139741108	2221.35498047
581.381987738	15474.3701172
582.381089469	2973.61865234
583.328860526	36698.6015625
584.33224004	10469.4335938
585.334424521	2771.77148438
586.420548659	4696.94677734
586.923348678	3254.91601562
595.165726226	5421.35839844
596.170014462	1808.22692871
599.303124303	57912.1484375
600.306192519	15591.9873047
601.304643171	7283.46875
602.307324855	1751.77832031
617.147300091	3914.83740234
740.462959883	25161.0351562
741.466354187	8900.36914062
742.467952487	2410.19042969
761.392778416	2234.49243164
922.009344647	5233.64550781
