69.0336272447	1080.86730957
70.0659925423	605.677307129
71.0495417566	705.375427246
72.9862043429	972.365783691
81.0335331978	583.382446289
81.9373996987	2472.20336914
85.0284491376	4580.69921875
86.0962547206	3688.50537109
89.0595831329	8993.18066406
97.0281366177	2229.6730957
99.0439101305	745.398620605
109.028648077	1160.16149902
110.064090562	580.722839355
110.975397262	590.438110352
111.044659143	744.969543457
114.090116365	808.93536377
116.069675863	2495.16870117
116.975614362	2947.70141602
117.032554041	910.954528809
117.064793608	1107.4699707
118.084737592	2141.67578125
119.048800932	1342.8605957
119.082384229	839.807800293
120.079904899	2336.57006836
121.050870924	95281.1015625
121.147037127	1382.28540039
121.180357742	704.503845215
122.053565466	6310.41455078
122.964599213	730.407592773
124.039578779	1170.9420166
127.038623332	4545.90966797
128.104142976	611.625366211
129.091527425	1635.45043945
130.065790191	2883.56469727
131.081776998	1777.90563965
132.087656562	987.713806152
132.097609319	2331.35620117
133.085880443	9688.82128906
134.089117499	760.730407715
135.113364463	861.063598633
136.069850033	1102.17700195
137.06082444	1201.89868164
141.018277737	703.47833252
141.112306239	1370.89807129
144.071926357	953.987854004
145.030719347	1560.30688477
145.048116964	3229.71044922
146.058548375	782.941589355
149.059061007	2173.91821289
149.095226892	1734.16503906
153.018044415	2123.37158203
159.098429299	4017.58520508
163.058181137	1338.51721191
163.119864205	2991.48950195
163.643126355	681.171936035
165.090235922	783.473022461
167.104278598	776.502258301
169.014595931	854.740661621
172.155342756	1342.4519043
177.054185368	18478.671875
177.110645029	5778.28759766
178.057840565	1941.87915039
180.090260637	776.432250977
182.151599624	799.225646973
185.162801227	1488.94042969
187.106752222	1237.56164551
188.069967266	3262.9609375
191.106459619	2256.86889648
195.125135526	906.548706055
196.096544715	1804.05444336
199.178511719	2256.23681641
200.128238129	2370.20727539
201.010778557	616.651916504
201.11965392	2011.3013916
205.090665857	1345.74609375
207.069290979	732.261108398
209.116847307	7165.75634766
210.130784687	636.992248535
210.146287588	725.018554688
213.173941329	6176.85644531
213.67835012	1472.33032227
215.10760772	621.792053223
215.133549154	843.926757812
216.122269568	1309.69445801
217.152696464	1229.78051758
218.13998483	1160.59155273
219.132216815	722.874389648
221.136231331	1732.1875
224.123536237	594.568725586
227.126918344	1128.85070801
227.172926552	8253.30761719
227.675765762	1296.99084473
228.172943405	675.646179199
229.122101694	768.960266113
231.158183678	643.510864258
233.148979833	795.300109863
239.146340569	1253.5880127
243.06627507	1667.07946777
245.184916993	35359.8320312
246.187806758	4703.88232422
247.186470396	576.512512207
251.172682148	610.58795166
259.162214838	1965.4699707
261.134155903	709.961730957
263.137645678	1099.35571289
265.160591614	1192.14575195
265.884870469	2040.31311035
266.218426541	1048.87475586
267.164689226	905.873474121
271.063410391	1201.65783691
271.241411854	690.149108887
276.726135794	911.453735352
277.116587088	889.879699707
283.172446789	3243.23046875
284.183941456	935.411804199
287.056462354	1241.7434082
287.113075018	3938.99365234
287.231933054	1127.64440918
288.123297944	639.852539062
289.070224041	13426.5537109
289.247226312	821.314086914
290.074463571	2184.0012207
295.138682364	1844.99804688
303.07809085	596.561035156
303.226929225	608.265686035
304.166722058	1864.37475586
309.116936621	606.308959961
312.162993191	1968.56091309
317.118082604	10519.4921875
318.124529516	1492.13745117
318.200304732	757.084106445
319.093143987	1736.46508789
319.270651265	2509.94360352
319.772826236	1033.86791992
320.130311674	692.56628418
326.27702185	863.531677246
327.200045179	4260.81103516
328.214134652	1908.27600098
330.236772285	3438.12255859
331.137325906	1163.91809082
331.239008049	665.212219238
332.216141583	814.335021973
333.092281908	2292.95288086
335.133236744	1408.56848145
340.255278057	702.394836426
342.231757022	1405.46057129
343.305277924	8669.16601562
344.308177928	1839.56408691
346.195589796	2737.71508789
349.074484053	1045.56665039
350.175950775	619.56817627
352.211233683	745.273010254
352.337180647	1174.87609863
353.211051728	998.219177246
356.278218237	1655.26269531
357.125856771	666.119689941
358.222670187	773.892089844
360.202519852	729.004577637
361.224900738	993.801086426
362.208244383	1651.94921875
364.202200918	831.236328125
366.198135696	783.69744873
368.188500732	728.618591309
371.22720061	311803.03125
371.389712071	3884.13330078
371.460698952	3480.92114258
371.630256424	1066.18457031
371.772223606	620.528686523
372.229716215	51080.5546875
373.231397993	9533.04003906
374.122132796	6209.671875
374.230312213	1506.02563477
375.126454562	3186.96875
376.128291519	586.823181152
377.165360304	1145.89550781
378.179729748	695.005859375
379.097569348	10386.7597656
379.192385592	626.499145508
380.102039238	1825.34155273
380.207692073	1566.92419434
381.092064034	778.225585938
382.195230358	1414.81420898
383.272424058	586.919128418
386.210412585	780.91192627
388.253685849	575720.0
388.41895149	15247.7783203
388.493468729	7518.74560547
388.664009267	2233.39282227
388.719983372	993.804992676
388.758993487	728.602050781
388.806116127	909.731262207
388.856838995	678.383605957
388.891338317	814.440429688
389.056815577	681.888183594
389.176125544	720.340942383
389.256376371	99924.734375
389.490227461	1722.3626709
389.672861121	650.323181152
389.813734075	631.217590332
390.257505896	17179.0917969
391.25751166	2353.49243164
392.178677863	1794.47009277
393.208600103	94626.4765625
393.4450054	878.020446777
394.211935032	16552.5898438
395.072381576	1975.40063477
395.211052219	3574.47241211
396.208456919	1602.98608398
397.196564918	813.003845215
398.087972039	1188.70056152
398.324340292	186277.59375
398.48903893	1780.47827148
398.570058676	2717.87890625
398.825516997	90054.5546875
399.06301819	1498.49719238
399.16351901	1360.82629395
399.326355454	23269.8535156
399.827392502	4697.77001953
400.175724438	743.264465332
400.30976731	2141.54785156
402.253626163	913.472961426
403.25086867	2771.68579102
406.206033282	982.295959473
407.217296815	678.524230957
408.20853206	788.89239502
409.182445688	67456.6953125
409.31339831	4619.45751953
409.815324349	2280.74072266
410.185499845	11353.953125
410.315214601	732.937866211
411.169306837	18293.5527344
412.171780511	3758.96240234
413.168011293	1488.87316895
416.232211607	2248.23217773
417.231345751	1995.31872559
417.29051953	1483.81359863
417.800865167	685.09173584
418.226795566	646.98449707
419.225930729	1741.46069336
420.195153623	1286.28198242
421.203458943	677.034545898
424.205664552	798.003601074
425.141849661	2461.37744141
427.139182792	5616.93115234
428.149545846	1250.0201416
429.163144804	1311.11779785
430.217801512	648.657775879
431.221670028	1012.03015137
432.266511648	1448.55187988
433.209591435	1375.98913574
434.207938318	815.879455566
437.21832495	894.247558594
441.100097109	1402.22485352
442.244330647	735.602050781
443.109167421	969.124694824
445.170453316	986.017089844
446.263449262	666.069213867
447.237391106	1341.9074707
448.230955677	946.955566406
449.107907693	4817.58251953
450.112565837	1160.69628906
451.12189813	4877.50048828
452.129263693	1104.93933105
453.21060744	737.158081055
453.340424192	702.355102539
455.1934487	767.143981934
456.276728173	972.844055176
458.220335819	3364.74658203
459.227498784	895.153625488
461.253617311	1608.0501709
462.250688444	778.672546387
463.18177705	1557.9654541
464.212005847	831.055541992
467.225303564	802.228942871
468.220461201	805.571777344
469.233688494	1774.76147461
470.226836952	10890.0332031
471.230260313	2943.50976562
471.353183831	74593.6015625
472.234261394	1125.30786133
472.355240148	19491.1308594
473.106961974	1278.28088379
473.232585878	762.895202637
473.355784533	3353.22241211
474.254620503	1462.44140625
475.227287499	1578.35375977
476.233047788	882.798400879
477.218766294	995.559448242
478.22930292	843.809875488
480.236762048	830.17388916
481.232881334	715.830200195
482.2254311	1054.96374512
483.229413124	1088.30102539
484.225323501	1818.36108398
484.725277365	578.956970215
485.226067351	1067.14306641
486.22819792	873.420043945
487.229572383	757.806274414
488.264756212	949.022766113
489.244179266	973.882324219
490.242639388	936.330566406
491.212328088	743.811340332
493.239802791	757.90637207
493.330438396	1450.5567627
494.227232083	715.703918457
495.210531287	609.504516602
496.231950959	883.430847168
497.226365903	706.475769043
498.222404878	2186.03466797
498.360211973	6205.02880859
499.23556513	1454.74438477
499.362477162	1879.80737305
500.237261562	10272.3583984
501.240763702	3442.32397461
502.254569779	2283.98583984
503.25056431	1271.92871094
504.268417131	1175.98986816
507.222557302	2385.75024414
508.239726483	1426.78295898
512.242517209	732.869445801
513.246550417	748.674194336
514.240122857	842.118530273
515.251104722	871.006530762
516.273590284	879.984313965
518.256538101	1115.4161377
519.242483	667.380432129
520.261514221	1407.24572754
521.213358549	608.664245605
523.240348692	628.547668457
524.243349258	673.618041992
525.23644777	657.798217773
526.22464737	2874.22192383
527.23299679	991.998535156
528.248301562	785.775878906
529.262983857	1043.74865723
530.262820671	1424.2689209
531.252010149	1001.15246582
532.262203861	1304.53588867
533.244295357	1737.85070801
534.251191712	1069.31945801
535.076431455	904.880371094
535.253140551	1193.20678711
536.260078785	772.286315918
537.263159897	1534.08422852
538.260875726	962.005737305
541.243153597	688.42364502
542.244454747	749.514831543
543.23933981	924.744140625
544.248101687	797.308959961
545.249194329	764.904418945
546.253199444	899.963500977
548.257275983	964.348815918
549.25170138	832.663085938
551.254280087	1032.07995605
552.256155442	745.368347168
553.244939869	813.676147461
554.250951963	674.679138184
555.257010921	633.122375488
556.246537792	1339.80493164
557.25074744	1136.25952148
558.246589707	1838.3494873
559.252321548	936.362487793
560.268114342	838.618591309
561.204380674	1450.16674805
562.249199993	1210.53015137
563.256406744	766.704040527
564.264665852	598.092956543
565.260871142	860.827575684
566.267384079	880.29284668
567.263377685	957.663146973
568.286003747	868.129211426
569.271544908	730.007629395
569.471417186	1418.48400879
570.287110433	590.015930176
571.264327029	589.892456055
572.259848425	623.377319336
573.246244967	1480.73498535
574.24650526	815.396911621
575.25694267	831.15435791
576.258998418	634.598510742
577.225885885	5070.97900391
578.233270584	2029.94006348
579.245264733	1234.0135498
580.289210823	1179.61315918
581.270125469	1132.21716309
582.264572107	939.40234375
583.270015507	1329.54797363
584.267903699	1015.16027832
585.269612562	940.044372559
586.269409774	722.844787598
587.274536367	713.579101562
588.271748083	580.280212402
592.257272447	649.707885742
593.264555515	617.671569824
594.27359439	1129.62805176
595.166002364	2099.51806641
595.268312773	700.774230957
596.171323687	683.138366699
596.270255838	685.29473877
598.273884685	796.185668945
599.274756786	954.350952148
600.285317256	1409.89855957
601.287990454	912.830566406
603.284206284	725.565124512
605.275169138	587.644104004
608.27959417	635.778808594
609.277197675	665.269470215
610.280891032	1391.4309082
611.158603888	7132.92919922
611.274518158	633.566040039
612.163820238	2117.60400391
613.27951879	662.138671875
614.275479551	586.052856445
615.396159199	1294.25512695
616.2752746	675.957580566
617.287698118	734.202331543
618.281899154	714.471008301
619.290273792	713.022338867
621.28380192	850.133178711
623.277235235	616.838317871
624.267416371	865.317260742
625.276729729	975.918334961
626.284542617	684.967590332
628.288849936	633.432312012
629.284404498	646.863342285
630.293252552	1152.89440918
631.298133503	851.728942871
632.292699337	643.291442871
633.142447952	650.312072754
633.343555551	881.961914062
635.12249181	604.380859375
635.301782291	584.26574707
639.289903865	616.758850098
643.283821421	863.394836426
644.290677818	647.971679688
645.286842426	659.625061035
646.296013761	964.074890137
647.307650801	893.470825195
648.298744805	736.505065918
656.304651483	725.077819824
657.297408185	676.127929688
658.307779341	586.039978027
660.285887923	683.14642334
666.236507958	578.01776123
678.289068617	659.551269531
681.307995337	576.473815918
687.314567911	674.108520508
735.208560405	2831.49365234
736.211578962	1016.88897705
757.21507501	38154.1132812
758.218141601	13171.3701172
759.221723842	3814.87231445
760.232508204	976.664367676
761.386320003	628.863891602
770.259215839	1142.00585938
771.265408299	643.765686035
776.191246005	623.592956543
779.19633514	5516.49707031
780.202864767	2043.1973877
781.205075806	745.914367676
795.170918587	1564.47949219
795.638566132	15516.2353516
796.174014492	692.032836914
796.64158788	7501.75683594
797.643459907	1977.26428223
817.619927966	934.12322998
841.173874013	702.264160156
1075.35993991	1625.63012695
1076.36213331	1225.68762207
1077.36717605	827.530944824
1078.36721285	726.180358887
1096.37148562	687.546325684
