69.0340011594	1205.41760254
81.9376941982	1963.60681152
85.0288005383	4163.69287109
86.0965637574	1705.78930664
97.0283911723	2982.84692383
109.028502577	1230.40368652
115.041071428	1203.34240723
116.069685867	1515.38342285
116.976290279	1529.99633789
118.085399541	2909.37255859
120.080392071	1373.52954102
121.050878093	72872.5234375
121.148082212	1199.39196777
122.053585868	4956.78515625
127.038871363	4411.31591797
130.069018748	1904.36743164
131.081544725	2120.01855469
132.08503903	3698.23583984
137.061262564	1111.78881836
145.048384152	2729.67114258
149.058575615	1553.67468262
149.096896335	1302.40966797
153.018013483	7588.45458984
159.100596263	2823.73632812
161.060674339	1345.05371094
163.063812586	1533.61376953
163.121644902	6231.21533203
177.054461658	11342.5849609
178.058360722	1166.35070801
188.070847629	1228.38366699
191.106560287	1923.48608398
195.064126124	2571.94360352
196.096339606	2337.76245117
200.128572829	1589.24450684
201.114931414	1567.17797852
209.116651805	9276.79199219
210.121969236	1268.52612305
215.070661371	2251.99194336
218.136906802	1024.19543457
220.096723414	1854.28112793
225.040556245	1567.01391602
227.124749366	1171.65600586
227.169999698	1243.43859863
243.065132791	7030.45117188
244.066272466	1218.95214844
245.185448223	19712.5429688
246.187922556	2771.56933594
259.159665346	1639.95166016
271.061170673	4824.22265625
287.055691608	28596.2128906
287.105007391	6204.39892578
288.059191639	4587.36962891
289.070412295	62398.0234375
289.187013205	2624.70092773
290.073697393	9966.9921875
291.076992566	1628.84338379
291.205618507	5153.18603516
292.207043019	1101.32836914
295.112574587	2607.56445312
309.07603825	1574.2734375
317.061110345	12831.4921875
317.113517869	7131.54394531
317.561048098	3618.48461914
319.080663477	1603.17858887
328.220975021	1163.65454102
331.135605481	1563.33312988
333.097370468	1275.38098145
343.307040251	1184.30004883
356.278375805	1599.35180664
371.226207232	2641.91699219
374.148477031	1199.81225586
375.1296743	2150.72070312
377.15122936	1084.41308594
379.099113907	5407.86328125
387.127318311	1796.01171875
388.252523531	4642.44824219
389.176606134	4223.18994141
393.205249181	2014.82714844
395.074797392	1838.57800293
398.085578989	5799.19189453
398.324121139	31736.5449219
398.585691091	2381.13110352
398.8255823	15351.3964844
399.326850263	4282.43505859
400.304256417	1563.36791992
405.151440399	1058.04443359
406.201970185	1749.76074219
409.17752108	1205.00695801
411.161246396	8954.84277344
412.167258456	2122.38012695
413.172352344	1185.33068848
416.227711204	3766.35302734
417.230792118	1793.13537598
419.225815455	1402.01477051
420.18578431	41947.6679688
421.188942418	8138.19140625
422.18974073	1851.08642578
425.140804589	25854.2675781
426.144849447	5135.27539062
427.141622293	5477.96484375
428.150197325	1100.70239258
429.16966166	1601.98730469
431.194027773	1774.28308105
432.274509082	1125.33154297
433.208614162	2058.79907227
434.170467749	1479.43798828
439.121362822	3809.06054688
441.115381401	17040.0605469
442.118963428	3287.40576172
443.116746713	1822.2578125
449.107665148	101329.03125
450.110572917	21705.015625
451.120805422	24036.7851562
452.125540756	5240.83154297
453.128097558	1385.71862793
455.098461327	1483.36303711
470.228456652	2146.94384766
473.104442101	3300.14501953
475.214376646	1322.48596191
479.118175305	1066.68603516
489.077925665	1254.65673828
492.277753453	2117.29638672
498.224649445	1345.83154297
498.352027055	1325.33996582
500.238091114	2473.92773438
514.290530034	1234.26940918
521.202216963	1912.9876709
523.206990532	1026.67773438
526.219876903	2171.56835938
535.08080084	1114.88586426
555.131977679	1250.52160645
556.239113313	2389.5703125
557.246937142	1017.87548828
558.245127757	1503.22363281
561.195142727	3143.40698242
562.204435433	1023.61535645
577.185801153	1347.39013672
595.164723316	50482.7851562
596.167906495	14480.4423828
597.171563611	3568.4465332
599.165093958	1067.51660156
611.159837296	92335.5703125
612.162937545	25494.0292969
613.165425437	6393.41992188
614.169561452	1424.39086914
615.159573572	1096.59484863
623.143315363	5740.55761719
623.643803895	3456.81298828
624.149872951	1581.33630371
625.153610774	1223.70300293
633.352737631	1863.63061523
635.119771149	2028.44250488
647.33437656	3843.92626953
648.335061375	1521.87878418
686.193108872	2175.56201172
757.218415986	1006983.0625
757.558013042	10362.96875
757.784448321	2646.72680664
757.894100433	1608.73754883
757.965095347	2724.60913086
758.221989059	364285.3125
758.557402178	2232.20117188
758.781903709	2139.28417969
758.813609068	1178.05541992
758.871422943	2003.26818848
758.929105577	1173.20336914
758.976907572	1385.15612793
759.032793852	1750.78723145
759.223170702	98266.234375
759.583174789	1179.27648926
759.813601518	1207.92419434
759.871117168	1404.59423828
759.942992336	1569.2734375
760.224933475	19780.3671875
761.230684087	4299.25097656
761.387036399	1256.46350098
762.244640594	1042.30285645
768.203620729	1787.58691406
768.701349021	1579.55883789
769.203790534	1210.99145508
776.189278864	20261.3164062
776.690071281	14803.2734375
777.191611467	7462.01660156
777.69364844	2897.79589844
778.192669768	1602.93127441
779.198104623	49481.0
780.201055702	17447.9023438
781.203848302	5455.91796875
782.207367587	1431.06384277
787.225932204	5069.3203125
788.230410272	2113.70800781
789.21758031	1522.27624512
795.172395847	12228.2265625
795.639479594	2557.07568359
796.174977396	4432.74267578
796.644853093	1330.18237305
797.176143137	2258.02734375
811.138005045	2010.03955078
841.176599488	1783.81872559
848.198198691	1643.2611084
848.701275847	1327.82226562
903.272720897	8185.24365234
904.276953478	3518.85498047
905.278829146	1308.53198242
919.269954341	1026.16455078
923.21332577	1229.12158203
1065.32336589	1233.05480957
1073.33771711	1602.38671875
1074.34068896	1108.7935791
1075.35930345	2237.48730469
1076.35859104	1725.97497559
1078.36214183	1067.3671875
1096.36985926	1034.63049316
1154.29331619	6359.31054688
1154.79432582	7036.62109375
1155.29561309	4887.71777344
1155.79792584	2386.41821289
1156.30133675	1169.88525391
1229.29787039	1172.02636719
1231.29400797	1430.49597168
1245.27951028	1032.57202148
1261.25557175	1138.57897949
