
  Mrv0541 02271201442D          

 69 74  0  0  0  0            999 V2000
   -6.2609    1.7606    0.0000 C   0  0  0  0  0  0  0  0  0  0  0  0
   -6.9754    1.3480    0.0000 C   0  0  0  0  0  0  0  0  0  0  0  0
   -6.9754    0.5230    0.0000 C   0  0  0  0  0  0  0  0  0  0  0  0
   -6.2609    0.1105    0.0000 C   0  0  0  0  0  0  0  0  0  0  0  0
   -5.5465    0.5230    0.0000 C   0  0  0  0  0  0  0  0  0  0  0  0
   -5.5465    1.3480    0.0000 C   0  0  0  0  0  0  0  0  0  0  0  0
   -4.8320    1.7606    0.0000 O   0  0  0  0  0  0  0  0  0  0  0  0
   -4.8320    0.1105    0.0000 C   0  0  0  0  0  0  0  0  0  0  0  0
   -4.1175    0.5230    0.0000 C   0  0  0  0  0  0  0  0  0  0  0  0
   -4.1175    1.3480    0.0000 C   0  0  0  0  0  0  0  0  0  0  0  0
   -3.4031    1.7605    0.0000 C   0  0  0  0  0  0  0  0  0  0  0  0
   -2.6886    2.9981    0.0000 C   0  0  0  0  0  0  0  0  0  0  0  0
   -3.4031    2.5856    0.0000 C   0  0  0  0  0  0  0  0  0  0  0  0
   -2.6886    1.3480    0.0000 C   0  0  0  0  0  0  0  0  0  0  0  0
   -1.9741    1.7605    0.0000 C   0  0  0  0  0  0  0  0  0  0  0  0
   -1.9741    2.5856    0.0000 C   0  0  0  0  0  0  0  0  0  0  0  0
   -4.8320   -0.7145    0.0000 O   0  0  0  0  0  0  0  0  0  0  0  0
   -3.4031    0.1105    0.0000 O   0  0  0  0  0  0  0  0  0  0  0  0
   -7.6899    1.7605    0.0000 O   0  0  0  0  0  0  0  0  0  0  0  0
   -6.2609   -0.7145    0.0000 O   0  0  0  0  0  0  0  0  0  0  0  0
   -2.6886    3.8231    0.0000 O   0  0  0  0  0  0  0  0  0  0  0  0
   -1.2597    2.9981    0.0000 O   0  0  0  0  0  0  0  0  0  0  0  0
   -4.1176   -1.1270    0.0000 O   0  0  0  0  0  0  0  0  0  0  0  0
   -4.1176   -1.9520    0.0000 C   0  0  1  0  0  0  0  0  0  0  0  0
   -3.4031   -2.3645    0.0000 C   0  0  2  0  0  0  0  0  0  0  0  0
   -2.6886   -1.9520    0.0000 C   0  0  1  0  0  0  0  0  0  0  0  0
   -2.6886   -1.1270    0.0000 C   0  0  2  0  0  0  0  0  0  0  0  0
   -3.4031   -0.7145    0.0000 C   0  0  2  0  0  0  0  0  0  0  0  0
   -1.9741   -0.7145    0.0000 O   0  0  0  0  0  0  0  0  0  0  0  0
   -1.9741   -2.3645    0.0000 O   0  0  0  0  0  0  0  0  0  0  0  0
   -3.4031   -3.1895    0.0000 O   0  0  0  0  0  0  0  0  0  0  0  0
   -4.8320   -2.3645    0.0000 C   0  0  0  0  0  0  0  0  0  0  0  0
   -4.8320   -3.1895    0.0000 O   0  0  0  0  0  0  0  0  0  0  0  0
   -6.2609   -3.1895    0.0000 O   0  0  0  0  0  0  0  0  0  0  0  0
   -6.9754   -3.6020    0.0000 C   0  0  2  0  0  0  0  0  0  0  0  0
   -6.9754   -4.4270    0.0000 C   0  0  1  0  0  0  0  0  0  0  0  0
   -6.2609   -4.8395    0.0000 C   0  0  2  0  0  0  0  0  0  0  0  0
   -5.5464   -4.4270    0.0000 C   0  0  2  0  0  0  0  0  0  0  0  0
   -5.5464   -3.6020    0.0000 C   0  0  2  0  0  0  0  0  0  0  0  0
   -4.8319   -4.8396    0.0000 O   0  0  0  0  0  0  0  0  0  0  0  0
   -6.2609   -5.6646    0.0000 O   0  0  0  0  0  0  0  0  0  0  0  0
   -7.6898   -3.1895    0.0000 C   0  0  0  0  0  0  0  0  0  0  0  0
   -7.6899   -4.8395    0.0000 O   0  0  0  0  0  0  0  0  0  0  0  0
   -7.4984   -6.3791    0.0000 O   0  0  0  0  0  0  0  0  0  0  0  0
   -7.9109   -7.0936    0.0000 C   0  0  1  0  0  0  0  0  0  0  0  0
   -7.4984   -7.8080    0.0000 C   0  0  2  0  0  0  0  0  0  0  0  0
   -6.6733   -7.8080    0.0000 C   0  0  1  0  0  0  0  0  0  0  0  0
   -6.2609   -7.0936    0.0000 C   0  0  2  0  0  0  0  0  0  0  0  0
   -6.6734   -6.3791    0.0000 C   0  0  2  0  0  0  0  0  0  0  0  0
   -5.4359   -7.0935    0.0000 O   0  0  0  0  0  0  0  0  0  0  0  0
   -6.2608   -8.5225    0.0000 O   0  0  0  0  0  0  0  0  0  0  0  0
   -7.9109   -8.5225    0.0000 O   0  0  0  0  0  0  0  0  0  0  0  0
   -8.7359   -7.0936    0.0000 C   0  0  0  0  0  0  0  0  0  0  0  0
   -9.1483   -7.8080    0.0000 O   0  0  0  0  0  0  0  0  0  0  0  0
   -4.1751   -2.7750    0.0000 H   0  0  0  0  0  0  0  0  0  0  0  0
   -2.7191   -2.8258    0.0000 H   0  0  0  0  0  0  0  0  0  0  0  0
   -1.9471   -1.5903    0.0000 H   0  0  0  0  0  0  0  0  0  0  0  0
   -2.6310   -0.3040    0.0000 H   0  0  0  0  0  0  0  0  0  0  0  0
   -2.8728   -0.0825    0.0000 H   0  0  0  0  0  0  0  0  0  0  0  0
   -7.7169   -3.9636    0.0000 H   0  0  0  0  0  0  0  0  0  0  0  0
   -7.0330   -5.2500    0.0000 H   0  0  0  0  0  0  0  0  0  0  0  0
   -5.5769   -5.3008    0.0000 H   0  0  0  0  0  0  0  0  0  0  0  0
   -4.8049   -4.0654    0.0000 H   0  0  0  0  0  0  0  0  0  0  0  0
   -4.7339   -3.7453    0.0000 H   0  0  0  0  0  0  0  0  0  0  0  0
   -8.3722   -7.7776    0.0000 H   0  0  0  0  0  0  0  0  0  0  0  0
   -7.1367   -8.5495    0.0000 H   0  0  0  0  0  0  0  0  0  0  0  0
   -5.8503   -7.8656    0.0000 H   0  0  0  0  0  0  0  0  0  0  0  0
   -5.7996   -6.4096    0.0000 H   0  0  0  0  0  0  0  0  0  0  0  0
   -5.8982   -6.0969    0.0000 H   0  0  0  0  0  0  0  0  0  0  0  0
  1  2  1  0  0  0  0
  2  3  2  0  0  0  0
  3  4  1  0  0  0  0
  4  5  2  0  0  0  0
  1  6  2  0  0  0  0
  7  6  1  0  0  0  0
  5  6  1  0  0  0  0
  5  8  1  0  0  0  0
  8  9  1  0  0  0  0
  9 10  2  0  0  0  0
  7 10  1  0  0  0  0
 10 11  1  0  0  0  0
 13 11  2  0  0  0  0
 11 14  1  0  0  0  0
 12 13  1  0  0  0  0
 14 15  2  0  0  0  0
 15 16  1  0  0  0  0
 12 16  2  0  0  0  0
  8 17  2  0  0  0  0
  9 18  1  0  0  0  0
  2 19  1  0  0  0  0
  4 20  1  0  0  0  0
 12 21  1  0  0  0  0
 16 22  1  0  0  0  0
 28 18  1  1  0  0  0
 23 24  1  0  0  0  0
 24 25  1  0  0  0  0
 25 26  1  0  0  0  0
 26 27  1  0  0  0  0
 27 28  1  0  0  0  0
 23 28  1  0  0  0  0
 27 29  1  6  0  0  0
 26 30  1  1  0  0  0
 25 31  1  6  0  0  0
 24 32  1  1  0  0  0
 32 33  1  0  0  0  0
 39 33  1  1  0  0  0
 34 35  1  0  0  0  0
 35 36  1  0  0  0  0
 36 37  1  0  0  0  0
 37 38  1  0  0  0  0
 38 39  1  0  0  0  0
 34 39  1  0  0  0  0
 38 40  1  6  0  0  0
 37 41  1  6  0  0  0
 35 42  1  6  0  0  0
 36 43  1  1  0  0  0
 49 41  1  1  0  0  0
 44 45  1  0  0  0  0
 45 46  1  0  0  0  0
 46 47  1  0  0  0  0
 47 48  1  0  0  0  0
 48 49  1  0  0  0  0
 44 49  1  0  0  0  0
 48 50  1  6  0  0  0
 47 51  1  1  0  0  0
 46 52  1  6  0  0  0
 45 53  1  1  0  0  0
 53 54  1  0  0  0  0
 24 55  1  6  0  0  0
 25 56  1  1  0  0  0
 26 57  1  6  0  0  0
 27 58  1  1  0  0  0
 28 59  1  6  0  0  0
 35 60  1  1  0  0  0
 36 61  1  6  0  0  0
 37 62  1  1  0  0  0
 38 63  1  1  0  0  0
 39 64  1  6  0  0  0
 45 65  1  6  0  0  0
 46 66  1  1  0  0  0
 47 67  1  6  0  0  0
 48 68  1  1  0  0  0
 49 69  1  6  0  0  0
M  END
> <DATABASE_NAME>
phenol_explorer

> <DATABASE_ID>
PE000324

> <SMILES>
[H][C@@]1(C)O[C@@]([H])(OC[C@@]2([H])O[C@@]([H])(OC3=C(OC4=CC(O)=CC(O)=C4C3=O)C3=CC(O)=C(O)C=C3)[C@]([H])(O)[C@@]([H])(O)[C@]2([H])O)[C@]([H])(O)[C@]([H])(O[C@]2([H])O[C@]([H])(CO)[C@@]([H])(O)[C@]([H])(O)[C@@]2([H])O)[C@@]1([H])O

> <INCHI_IDENTIFIER>
InChI=1S/C33H40O21/c1-9-19(39)29(53-32-25(45)23(43)20(40)16(7-34)51-32)27(47)31(49-9)48-8-17-21(41)24(44)26(46)33(52-17)54-30-22(42)18-14(38)5-11(35)6-15(18)50-28(30)10-2-3-12(36)13(37)4-10/h2-6,9,16-17,19-21,23-27,29,31-41,43-47H,7-8H2,1H3/t9-,16+,17+,19-,20+,21+,23-,24-,25+,26+,27+,29+,31+,32-,33-/m0/s1

> <INCHI_KEY>
InChIKey=XEFNBVWDOQCMSG-DWTJFVCYSA-N

> <JCHEM_ACCEPTOR_COUNT>
21

> <JCHEM_AVERAGE_POLARIZABILITY>
72.07852205918779

> <JCHEM_DONOR_COUNT>
13

> <JCHEM_EXACT_MASS>
772.206208342

> <JCHEM_FORMAL_CHARGE>
0

> <JCHEM_FORMULA>
C33H40O21

> <JCHEM_IUPAC>
3-{[(2S,3R,4S,5S,6R)-6-({[(2R,3R,4R,5S,6S)-3,5-dihydroxy-6-methyl-4-{[(2S,3R,4S,5S,6R)-3,4,5-trihydroxy-6-(hydroxymethyl)oxan-2-yl]oxy}oxan-2-yl]oxy}methyl)-3,4,5-trihydroxyoxan-2-yl]oxy}-2-(3,4-dihydroxyphenyl)-5,7-dihydroxy-4H-chromen-4-one

> <ALOGPS_LOGP>
-0.56

> <JCHEM_LOGP>
-2.6395966206666657

> <ALOGPS_LOGS>
-1.87

> <JCHEM_MASS>
772.6581

> <JCHEM_PHYSIOLOGICAL_CHARGE>
-1

> <JCHEM_PKA>
8.451038732965287

> <JCHEM_PKA_STRONGEST_ACIDIC>
6.433960796034494

> <JCHEM_PKA_STRONGEST_BASIC>
-3.6789566937010862

> <JCHEM_POLAR_SURFACE_AREA>
344.67

> <JCHEM_REFRACTIVITY>
172.5584

> <JCHEM_ROTATABLE_BOND_COUNT>
9

> <ALOGPS_SOLUBILITY>
1.04e+01 g/l

> <JCHEM_TRADITIONAL_IUPAC>
3-{[(2S,3R,4S,5S,6R)-6-({[(2R,3R,4R,5S,6S)-3,5-dihydroxy-6-methyl-4-{[(2S,3R,4S,5S,6R)-3,4,5-trihydroxy-6-(hydroxymethyl)oxan-2-yl]oxy}oxan-2-yl]oxy}methyl)-3,4,5-trihydroxyoxan-2-yl]oxy}-2-(3,4-dihydroxyphenyl)-5,7-dihydroxychromen-4-one

$$$$
