69.0340472136	1803.68469238
71.0497309425	897.51373291
81.9377553028	1670.42297363
85.0288339462	6125.42138672
89.0598460898	9920.65429688
97.0283949538	4046.9777832
99.0440815238	929.23223877
109.028503328	1723.4095459
115.041070287	1159.70947266
116.070320928	876.299682617
116.976006011	2292.23071289
118.085209476	2101.19677734
120.079749178	961.524230957
121.050826235	78055.8671875
121.146435303	889.916320801
122.053524965	5401.93261719
127.0385916	5836.04541016
129.090178403	1368.09423828
130.067373266	1445.28515625
131.080953072	1274.07580566
132.08215726	1561.53833008
133.085592333	10280.5048828
137.059894195	1150.97607422
141.020104578	987.737243652
141.111627208	961.384460449
145.049099499	4366.49853516
153.0181664	2528.23217773
159.099114877	1358.33911133
159.102593768	1259.25012207
161.059386616	1552.51281738
163.066615549	2038.5333252
163.120436726	3776.41845703
172.155981507	918.68572998
177.053713283	5254.10351562
177.111106459	6364.60302734
180.087521094	1080.19506836
188.070474393	846.254516602
191.103888298	1406.67651367
196.096619029	1013.06536865
201.113195528	1229.21057129
209.116432196	7498.03857422
213.175397402	4045.49072266
213.679162899	1072.26965332
221.136859235	1931.09106445
225.039586132	1933.98376465
227.173716776	5341.65429688
227.676111859	977.391235352
239.145935052	1117.14868164
243.06456217	2294.71191406
245.184563919	4276.65283203
252.140309061	873.59942627
265.16140321	1264.94091797
265.884502069	1649.82189941
271.061708777	1601.95812988
276.726985787	884.787719727
283.172996701	3442.50097656
287.054136453	24664.4941406
287.106936769	11711.9804688
287.228375253	993.277282715
288.057552077	4022.69433594
288.110404032	1559.78137207
289.070720183	21154.5253906
289.248102341	888.41192627
290.073710075	3434.75317383
295.10632871	1655.05969238
295.135208463	1099.35168457
303.076879048	1132.57434082
309.076017695	915.259033203
312.162921156	1508.87036133
317.057853072	6339.83447266
317.087910379	1361.75500488
317.112733532	8049.80810547
317.560132676	2606.79760742
318.118235759	1091.14868164
319.079110668	842.759460449
319.269368576	1224.80432129
327.199302038	4452.23828125
328.210642672	1198.92871094
331.134153042	2268.72827148
333.094964857	2019.57641602
341.139443271	1063.61157227
343.304780895	7247.97705078
344.30649843	1535.90661621
349.078893133	1338.47412109
353.21312386	1018.76062012
356.276394696	1461.79650879
357.118993336	1033.41271973
358.229259039	1272.21643066
359.223678156	1190.2677002
371.226748109	336711.625
371.388265564	6711.19238281
371.455301541	2286.07055664
371.631784934	996.613891602
372.229195794	55256.453125
373.230274265	9943.99707031
374.230473049	1453.39831543
375.123345292	881.365783691
379.096916714	2815.89746094
380.212386225	1314.93603516
386.215893058	1063.51257324
388.253089254	605032.75
388.41857938	16232.8652344
388.488892643	4825.77392578
388.60942191	1265.81726074
388.662972277	2543.03149414
388.70775875	1109.67346191
388.937092408	1105.74902344
389.175932868	1983.35083008
389.255852701	105114.609375
389.420595557	1832.37268066
389.486302289	1083.48596191
389.61934128	907.64276123
389.663465795	985.603881836
389.817422269	848.804321289
390.256840645	17767.9082031
391.259139935	2565.59008789
393.208055946	125284.84375
394.211016101	21302.8945312
395.212342832	4184.35205078
396.211055785	1116.92175293
398.085381971	4266.72802734
398.323496768	177674.5
398.493114988	2194.80175781
398.574112329	2061.77514648
398.584246693	1290.33850098
398.824845409	85937.3984375
398.992513606	1059.99584961
399.06691943	957.066345215
399.086739582	879.003173828
399.325553265	22493.8496094
399.826948102	4557.38769531
400.311364802	2156.15600586
406.200425421	1567.8494873
409.18134634	65161.3203125
410.184501302	11025.3476562
411.171004573	12456.5898438
412.173191297	2648.03344727
413.174031633	1214.67700195
416.23026492	2245.92041016
419.223024743	1031.16516113
420.184445189	41405.7421875
421.187820283	7992.96386719
422.189047557	1790.63354492
425.13961433	28755.0449219
426.143324906	5425.31396484
427.13869036	4761.10839844
431.190220381	1078.71118164
432.270094744	1269.91870117
441.113443618	21317.4804688
442.116820047	4012.28442383
443.11476268	2228.8894043
449.105901658	86802.2578125
450.108792328	18702.4394531
451.11731989	9997.03027344
452.118310348	1248.68481445
452.127961507	845.523254395
462.284936349	1298.41015625
471.350428793	8767.96582031
472.35161959	2406.87646484
473.09705974	1282.25268555
475.211873971	890.89642334
482.196571892	906.839050293
498.361170917	5780.91894531
499.364294356	1671.17895508
521.198490234	2870.14306641
522.203658616	912.782043457
523.20114825	1071.90917969
555.12847677	1918.20739746
556.23466727	3784.44946289
557.237021302	1223.75476074
561.190448847	6008.99951172
562.194640041	1829.90917969
569.470142269	1462.88916016
577.164376334	3263.19775391
578.168626858	957.716247559
595.161968796	43380.6132812
596.164828488	12502.5996094
597.170182287	3262.26806641
599.158610159	1008.21295166
611.157031192	82934.984375
612.159949662	22945.0097656
613.162894089	5871.14453125
614.161736372	860.772277832
621.254088203	1192.06884766
623.143368512	2115.60522461
623.641841852	1156.60949707
633.13362032	913.116333008
635.11611182	2879.05761719
686.190001509	2562.82885742
687.19333988	909.213623047
757.214730545	841744.1875
757.544596327	6965.50048828
757.782077847	3278.76855469
757.879147707	1046.86401367
757.920161594	1611.15222168
758.030866563	1424.93676758
758.218372565	306528.25
758.547425799	3604.97558594
758.787421408	2275.44799805
758.849473192	1265.87597656
758.941776003	1642.37341309
759.005330999	1155.93408203
759.219608149	83477.3515625
759.729138844	1117.41174316
759.82697166	1030.4173584
759.884953203	1071.82470703
759.927623357	1016.95275879
760.221068625	16984.2167969
760.564310262	884.930175781
761.223501898	3677.03271484
762.224971732	1113.39611816
768.198918085	1296.22106934
768.698565681	1077.19885254
769.201416569	881.55267334
776.185183804	13137.8876953
776.686709648	9756.25488281
777.18827502	4911.30371094
777.687107958	1935.56933594
778.188769223	975.88873291
779.194356705	35825.640625
780.197021459	13028.0322266
781.196701226	4308.73291016
782.196159702	1160.99645996
787.220993185	3181.109375
788.223402958	1341.70703125
789.213367586	1016.94061279
795.167281453	9552.12597656
795.636097032	13578.4228516
796.170884968	3602.32006836
796.639947864	6605.11376953
797.170782324	1844.7857666
797.642119557	1795.11120605
811.132721749	1996.20751953
841.164615784	2127.32543945
842.17091519	856.163757324
903.268679491	8678.09277344
904.272266061	3741.63256836
905.273458468	1260.17114258
916.218729858	986.619873047
919.262852838	1187.61999512
1065.31877361	1245.73571777
1154.28708351	4639.54101562
1154.78607618	5091.88085938
1155.28891631	3377.62963867
1155.78854233	1792.72106934
1156.29103937	875.433898926
