69.0338175275	1167.30993652
71.0497026614	782.901977539
72.9868034246	998.607849121
81.0335389374	624.737731934
81.9373873074	2110.38769531
85.0287510206	4796.80078125
86.0964702484	528.519714355
87.0804951966	694.40826416
88.9811793005	528.534912109
89.0594715609	707.51171875
96.9590826799	518.742736816
97.0285444829	2267.94018555
99.0435487051	610.389770508
109.028494069	1109.09118652
109.099519023	515.67175293
114.09046471	973.145385742
116.070591007	1119.63269043
116.975929166	3251.81860352
117.059925785	655.512145996
118.085139961	2992.09838867
119.084688726	663.994689941
120.080551337	1878.3770752
121.050881346	98214.4453125
121.14733357	1671.90881348
121.180222044	798.127258301
122.053452301	6644.47265625
122.964509753	617.444519043
124.039815066	845.165710449
127.039077288	4405.40332031
129.056740535	797.749206543
130.068348904	1653.36804199
131.084198605	1406.59362793
132.082734409	3419.37060547
133.087552358	1434.96960449
136.066019467	781.710449219
137.060882151	915.385620117
138.05560724	684.555541992
138.125396559	690.554504395
140.068491456	625.001159668
141.109238456	524.244689941
142.066898726	501.724151611
144.07696922	1626.87976074
145.049924743	3256.12329102
146.062819518	678.766174316
147.047387676	640.057495117
149.094704549	823.506652832
150.059362834	563.526428223
156.136541549	599.538574219
158.114064607	544.65826416
163.042500829	642.587219238
163.05623855	1186.01452637
163.122077311	5256.64306641
164.125479166	841.279296875
165.089016285	842.113220215
166.086097835	617.108032227
177.055004556	520.937927246
180.088007155	717.518981934
183.099845771	752.285766602
186.220788957	529.358825684
188.070301151	1712.8302002
188.998686874	779.132324219
191.106652859	1485.59777832
195.10765818	776.758911133
200.129565407	723.091491699
205.027643965	567.371520996
206.045602937	856.997924805
207.067095902	975.933898926
209.116952939	7605.41113281
210.120092787	1164.82580566
213.077775502	543.573120117
216.122553024	1024.36242676
217.102356617	2164.32885742
218.133862114	875.836303711
224.127769287	711.155578613
225.077612641	681.202636719
227.126312142	1158.31530762
227.173564116	1786.23925781
239.145553868	760.980773926
245.220532892	603.015075684
248.220173367	503.833343506
249.156386699	1059.42407227
252.142968858	1134.54553223
253.162730993	2339.18432617
261.129575841	801.441101074
267.124230302	553.13873291
271.122543142	936.856872559
271.242679012	855.819641113
275.147377043	1411.6940918
283.168609682	610.288879395
287.054631912	21966.453125
287.231174644	1186.47558594
288.05753929	3740.74609375
288.190404646	639.015686035
289.063828124	696.518432617
289.246966974	1077.6809082
291.173158269	3109.65478516
295.1350115	2341.86547852
296.142569859	497.716766357
302.1946697	1269.3873291
303.223456013	768.738647461
309.078702748	2076.48852539
309.57281291	992.747436523
310.075578255	591.005859375
311.146129349	731.68963623
312.164091201	1987.40332031
312.24701495	503.526794434
313.152567826	576.422485352
317.058553309	10995.0800781
317.116048516	25394.3007812
317.561407418	4759.22265625
318.062260159	623.406066895
318.122282691	3351.9934082
319.104943541	1428.06225586
325.012858914	1124.82861328
327.200240763	1530.46289062
328.208015121	518.787475586
329.127793075	503.707733154
333.094173796	5447.47802734
334.098506052	713.491333008
335.100506768	580.129882812
340.157137785	630.910705566
340.256189529	968.75213623
341.175891127	1707.72009277
342.184824883	521.046691895
344.132170859	510.231445312
344.22373894	871.348083496
346.191142213	543.533325195
349.079483603	923.782531738
349.184638418	535.150756836
352.338251752	793.474609375
353.162826482	1533.95471191
356.166206518	500.032714844
356.277793699	2017.1171875
357.142864085	721.381958008
357.278871261	535.842712402
358.202646626	1428.49645996
359.20284926	972.009399414
360.206078006	526.733825684
361.149096086	554.090637207
361.228794501	1385.32922363
363.161669856	1353.79211426
367.183328107	549.520568848
368.185725744	530.845397949
371.166303359	2459.16357422
372.168161179	603.568847656
373.173065252	1143.41088867
375.135091359	651.207885742
377.19547891	561.857849121
379.118203731	990.61529541
381.116453835	685.527160645
382.191085573	677.557128906
383.267896126	914.482788086
386.217682582	918.499145508
387.135647009	2565.76708984
389.164945365	859.398864746
390.102357414	493.562347412
397.109889119	837.310058594
398.086095021	7226.02978516
398.196222175	1498.44238281
398.586477934	2619.30004883
399.096191278	1066.60583496
400.304524175	1689.0657959
401.230647523	589.887695312
401.300180485	513.445617676
403.156363415	3354.55737305
404.159730259	1056.64343262
405.228330408	506.465270996
406.206214119	2774.92333984
407.211641003	903.637695312
408.177829367	572.247497559
409.114284653	808.462280273
411.1627494	23218.6367188
412.16691581	4759.55957031
413.167306205	1471.49279785
414.182344792	505.445739746
416.217141123	550.776306152
418.260482656	661.239929199
419.135696515	2176.56640625
419.246971919	605.658752441
423.212882711	692.649719238
427.137031581	14399.7939453
428.141860224	2998.4609375
429.168513073	7309.05224609
430.178824361	1253.87524414
430.239126094	578.788513184
431.186126107	505.820800781
431.201483506	671.133239746
433.120311356	557.805419922
439.1972607	515.718566895
443.130804251	1160.21130371
444.324641552	1016.40631104
445.151162081	2050.30932617
445.261981443	647.586120605
447.183340968	1213.80334473
448.191632468	605.267456055
449.107238697	83046.515625
450.110421653	18252.7558594
451.113844663	4129.62597656
452.118582242	708.568359375
453.136807783	1002.79730225
461.172529934	550.810424805
463.16062192	1429.17321777
464.165972019	512.971618652
469.165404965	1334.17675781
473.073097245	632.768432617
473.20380573	3108.15795898
474.208170744	730.276306152
475.218714289	1093.72790527
479.126503321	681.52355957
487.055512688	588.762329102
489.181341195	1057.38269043
495.228087265	1002.43591309
496.240380576	586.826843262
500.241453807	706.002502441
503.027923601	807.679199219
514.252322102	496.973175049
519.235569376	493.699981689
523.275933323	505.853668213
545.157308991	1461.99475098
545.651788791	715.333984375
595.164161488	43261.0859375
596.166973251	12325.5332031
597.170191339	3234.95654297
598.177390461	605.992553711
611.159332482	49027.9179688
612.162158736	14293.5185547
613.165044195	3677.18579102
614.172538168	796.077514648
619.122687963	1954.29162598
620.128083997	639.684387207
630.293405493	658.33203125
635.117525446	1808.59118652
635.250217427	2322.46240234
636.120502868	550.67364502
636.255945749	663.484375
637.12753431	620.81060791
639.22529751	928.108459473
651.229663618	622.862915039
664.320736767	1019.28057861
665.0796503	632.310913086
678.421311007	609.178527832
716.273658002	2677.16186523
717.277513218	1033.20788574
721.2316309	1682.46716309
722.234184391	707.633300781
737.203952598	607.376831055
757.218292351	491871.34375
757.546617781	3867.60595703
757.785857675	1297.16186523
757.857567677	1220.01867676
757.923252176	879.915161133
757.967294251	960.278381348
758.220751513	171163.25
758.553272719	1443.41662598
758.706603552	910.290893555
758.790560657	1434.57495117
758.857248878	549.93536377
758.913784107	999.770080566
759.021238118	735.071594238
759.22176746	45097.3007812
759.541720457	799.118469238
759.648181367	1032.8067627
759.768738868	679.975708008
759.861548773	597.342651367
759.924802362	1026.91345215
760.223378098	9887.49121094
760.563118743	529.187805176
760.660106223	563.166015625
760.7804928	621.612487793
761.22743634	2141.16308594
762.231947712	700.063659668
763.224883312	850.212463379
765.139100629	496.391082764
768.202041717	2039.10461426
768.699793527	1658.27026367
769.202381991	1358.9576416
769.699620964	683.848999023
773.212571228	714.934143066
776.188405641	15643.6689453
776.689809168	11494.4228516
777.193471021	5752.82958984
777.691550502	2252.12353516
778.191279081	1137.52111816
778.691880678	561.462219238
779.198472673	66112.578125
779.694617545	623.73425293
780.200924673	23611.0449219
780.67837616	544.791870117
781.196314865	8963.60839844
782.194900531	2418.40698242
783.193108062	841.758239746
784.177830897	1577.44006348
784.678420676	1100.75915527
785.181366954	686.819946289
787.182470818	687.95111084
788.174729313	787.354370117
788.672235411	543.621948242
795.17114726	16751.9863281
795.662985008	857.212219238
796.173501174	6235.01416016
797.173547773	3048.84057617
798.178683833	1045.96618652
803.153906262	560.87121582
810.129423209	1041.71374512
811.134939817	3266.78564453
812.138643319	1306.49707031
813.137522413	618.048522949
825.18267149	687.330627441
831.140970559	996.112121582
833.142990091	508.37322998
841.167571531	5342.35449219
842.172974739	2056.53930664
843.178064738	794.529602051
847.118375502	652.32989502
893.148172759	512.859436035
903.273027579	1874.77075195
904.275770123	853.300292969
909.152749304	648.928405762
911.185805396	565.78692627
913.194153395	1176.01550293
914.199158228	579.454162598
919.265328535	755.723754883
922.008947159	1150.2722168
927.209248898	682.593261719
1020.22603886	562.710083008
1065.32502481	667.722961426
1073.26561908	706.167480469
1089.28075719	1170.78088379
1090.29523452	615.109558105
1154.293268	4180.54541016
1154.79386655	4638.50878906
1155.29516741	3151.76708984
1155.79885602	1629.40795898
1156.29840221	838.387878418
1166.27483534	520.032653809
1221.98542524	643.324768066
1229.27243811	607.028503418
1235.29315313	1172.47167969
1236.29395413	734.4921875
1381.35135376	599.658569336
